module gitlab.com/gojobpr/persistance

go 1.19

require (
	github.com/rs/zerolog v1.28.0
	github.com/stretchr/testify v1.8.0
	gitlab.com/gojobpr/logger v0.0.1
	gorm.io/driver/postgres v1.3.10
	gorm.io/gorm v1.23.9
)

require (
	github.com/DATA-DOG/go-sqlmock v1.5.0 // indirect
	github.com/davecgh/go-spew v1.1.1 // indirect
	github.com/jackc/chunkreader/v2 v2.0.1 // indirect
	github.com/jackc/pgconn v1.13.0 // indirect
	github.com/jackc/pgio v1.0.0 // indirect
	github.com/jackc/pgpassfile v1.0.0 // indirect
	github.com/jackc/pgproto3/v2 v2.3.1 // indirect
	github.com/jackc/pgservicefile v0.0.0-20200714003250-2b9c44734f2b // indirect
	github.com/jackc/pgtype v1.12.0 // indirect
	github.com/jackc/pgx/v4 v4.17.2 // indirect
	github.com/jinzhu/inflection v1.0.0 // indirect
	github.com/jinzhu/now v1.1.4 // indirect
	github.com/mattn/go-colorable v0.1.12 // indirect
	github.com/mattn/go-isatty v0.0.14 // indirect
	github.com/pmezard/go-difflib v1.0.0 // indirect
	golang.org/x/crypto v0.0.0-20220722155217-630584e8d5aa // indirect
	golang.org/x/sys v0.0.0-20210927094055-39ccf1dd6fa6 // indirect
	golang.org/x/text v0.3.7 // indirect
	gopkg.in/yaml.v3 v3.0.1 // indirect
)
